<?xml version='1.0' encoding='UTF-8'?>
<glyph name="two.ss01" format="2">
  <advance width="470"/>
  <outline>
    <contour>
      <point x="70" y="0" type="line"/>
      <point x="400" y="0" type="line"/>
      <point x="400" y="70" type="line"/>
      <point x="155" y="70" type="line"/>
      <point x="155" y="296" type="line"/>
      <point x="400" y="296" type="line"/>
      <point x="400" y="570" type="line"/>
      <point x="70" y="570" type="line"/>
      <point x="70" y="500" type="line"/>
      <point x="330" y="500" type="line"/>
      <point x="330" y="366" type="line"/>
      <point x="70" y="366" type="line"/>
    </contour>
  </outline>
  <lib>
    <dict>
      <key>com.schriftgestaltung.Glyphs.lastChange</key>
      <string>2021-07-18 16:05:34 +0000</string>
    </dict>
  </lib>
</glyph>
