<?xml version='1.0' encoding='UTF-8'?>
<glyph name="uni0456" format="2">
  <advance width="225"/>
  <unicode hex="0456"/>
  <outline>
    <component base="i"/>
  </outline>
  <lib>
    <dict>
      <key>com.schriftgestaltung.Glyphs.lastChange</key>
      <string>2023-06-30 11:37:30 +0000</string>
    </dict>
  </lib>
</glyph>
