<?xml version='1.0' encoding='UTF-8'?>
<glyph name="y" format="2">
  <advance width="470"/>
  <unicode hex="0079"/>
  <outline>
    <contour>
      <point x="70" y="-261" type="line"/>
      <point x="400" y="-261" type="line"/>
      <point x="400" y="570" type="line"/>
      <point x="315" y="570" type="line"/>
      <point x="315" y="70" type="line"/>
      <point x="140" y="70" type="line"/>
      <point x="140" y="570" type="line"/>
      <point x="70" y="570" type="line"/>
      <point x="70" y="0" type="line"/>
      <point x="315" y="0" type="line"/>
      <point x="315" y="-191" type="line"/>
      <point x="70" y="-191" type="line"/>
    </contour>
  </outline>
  <lib>
    <dict>
      <key>com.schriftgestaltung.Glyphs.lastChange</key>
      <string>2021-07-18 16:05:34 +0000</string>
    </dict>
  </lib>
</glyph>
