<?xml version='1.0' encoding='UTF-8'?>
<glyph name="breve" format="2">
  <advance width="360"/>
  <unicode hex="02D8"/>
  <anchor x="70" y="570" name="_top"/>
  <outline>
    <contour>
      <point x="70" y="790" type="line"/>
      <point x="70" y="690" type="line"/>
      <point x="290" y="690" type="line"/>
      <point x="290" y="790" type="line"/>
      <point x="220" y="790" type="line"/>
      <point x="220" y="710" type="line"/>
      <point x="140" y="710" type="line"/>
      <point x="140" y="790" type="line"/>
    </contour>
  </outline>
  <lib>
    <dict>
      <key>com.schriftgestaltung.Glyphs.lastChange</key>
      <string>2023-06-01 09:39:34 +0000</string>
    </dict>
  </lib>
</glyph>
