<?xml version='1.0' encoding='UTF-8'?>
<glyph name="Cacute" format="2">
  <advance width="470"/>
  <unicode hex="0106"/>
  <outline>
    <contour>
      <point x="70" y="0" type="line"/>
      <point x="400" y="0" type="line"/>
      <point x="400" y="48" type="line"/>
      <point x="153" y="48" type="line"/>
      <point x="153" y="736" type="line"/>
      <point x="400" y="736" type="line"/>
      <point x="400" y="784" type="line"/>
      <point x="70" y="784" type="line"/>
    </contour>
    <contour>
      <point x="235" y="950" type="line"/>
      <point x="400" y="950" type="line"/>
      <point x="400" y="998" type="line"/>
      <point x="235" y="998" type="line"/>
    </contour>
  </outline>
  <lib>
    <dict>
      <key>com.schriftgestaltung.Glyphs.lastChange</key>
      <string>2023-06-01 11:24:15 +0000</string>
      <key>com.schriftgestaltung.Glyphs.rightMetricsKey</key>
      <string>C</string>
    </dict>
  </lib>
</glyph>
