<?xml version='1.0' encoding='UTF-8'?>
<glyph name="quoteright" format="2">
  <advance width="163"/>
  <unicode hex="2019"/>
  <outline>
    <contour>
      <point x="98" y="605" type="line"/>
      <point x="113" y="605" type="line"/>
      <point x="113" y="784" type="line"/>
      <point x="30" y="784" type="line"/>
      <point x="30" y="736" type="line"/>
      <point x="98" y="736" type="line"/>
    </contour>
  </outline>
  <lib>
    <dict>
      <key>com.schriftgestaltung.Glyphs.lastChange</key>
      <string>2023-06-21 07:01:35 +0000</string>
    </dict>
  </lib>
</glyph>
