<?xml version='1.0' encoding='UTF-8'?>
<glyph name="uni0417.ss02" format="2">
  <advance width="450"/>
  <outline>
    <contour>
      <point x="50" y="0" type="line"/>
      <point x="380" y="0" type="line"/>
      <point x="380" y="570" type="line"/>
      <point x="310" y="570" type="line"/>
      <point x="310" y="784" type="line"/>
      <point x="50" y="784" type="line"/>
      <point x="50" y="736" type="line"/>
      <point x="227" y="736" type="line"/>
      <point x="227" y="522" type="line"/>
      <point x="365" y="522" type="line"/>
      <point x="365" y="48" type="line"/>
      <point x="50" y="48" type="line"/>
    </contour>
  </outline>
  <lib>
    <dict>
      <key>com.schriftgestaltung.Glyphs.lastChange</key>
      <string>2023-06-30 11:37:30 +0000</string>
      <key>com.schriftgestaltung.Glyphs.leftMetricsKey</key>
      <string>Ze-cy</string>
      <key>com.schriftgestaltung.Glyphs.rightMetricsKey</key>
      <string>Ze-cy</string>
    </dict>
  </lib>
</glyph>
