<?xml version='1.0' encoding='UTF-8'?>
<glyph name="A" format="2">
  <advance width="520"/>
  <unicode hex="0041"/>
  <outline>
    <contour>
      <point x="70" y="0" type="line"/>
      <point x="235" y="0" type="line"/>
      <point x="235" y="522" type="line"/>
      <point x="400" y="522" type="line"/>
      <point x="400" y="0" type="line"/>
      <point x="450" y="0" type="line"/>
      <point x="450" y="784" type="line"/>
      <point x="70" y="784" type="line"/>
    </contour>
    <contour>
      <point x="235" y="570" type="line"/>
      <point x="235" y="736" type="line"/>
      <point x="400" y="736" type="line"/>
      <point x="400" y="570" type="line"/>
    </contour>
  </outline>
  <lib>
    <dict>
      <key>com.schriftgestaltung.Glyphs.lastChange</key>
      <string>2023-06-01 09:40:29 +0000</string>
    </dict>
  </lib>
</glyph>
