<?xml version='1.0' encoding='UTF-8'?>
<glyph name="dollar" format="2">
  <advance width="470"/>
  <unicode hex="0024"/>
  <outline>
    <contour>
      <point x="70" y="100" type="line"/>
      <point x="400" y="100" type="line"/>
      <point x="400" y="470" type="line"/>
      <point x="235" y="470" type="line"/>
      <point x="235" y="636" type="line"/>
      <point x="400" y="636" type="line"/>
      <point x="400" y="684" type="line"/>
      <point x="70" y="684" type="line"/>
      <point x="70" y="422" type="line"/>
      <point x="385" y="422" type="line"/>
      <point x="385" y="148" type="line"/>
      <point x="70" y="148" type="line"/>
    </contour>
    <contour>
      <point x="194" y="0" type="line"/>
      <point x="277" y="0" type="line"/>
      <point x="277" y="100" type="line"/>
      <point x="194" y="100" type="line"/>
    </contour>
    <contour>
      <point x="194" y="684" type="line"/>
      <point x="277" y="684" type="line"/>
      <point x="277" y="784" type="line"/>
      <point x="194" y="784" type="line"/>
    </contour>
  </outline>
  <lib>
    <dict>
      <key>com.schriftgestaltung.Glyphs.lastChange</key>
      <string>2021-07-18 16:05:34 +0000</string>
    </dict>
  </lib>
</glyph>
