<?xml version='1.0' encoding='UTF-8'?>
<glyph name="uni0404" format="2">
  <advance width="450"/>
  <unicode hex="0404"/>
  <outline>
    <contour>
      <point x="430" y="0" type="line"/>
      <point x="430" y="48" type="line"/>
      <point x="310" y="48" type="line"/>
      <point x="310" y="522" type="line"/>
      <point x="430" y="522" type="line"/>
      <point x="430" y="570" type="line"/>
      <point x="180" y="570" type="line"/>
      <point x="180" y="736" type="line"/>
      <point x="430" y="736" type="line"/>
      <point x="430" y="784" type="line"/>
      <point x="50" y="784" type="line"/>
      <point x="50" y="522" type="line"/>
      <point x="180" y="522" type="line"/>
      <point x="180" y="0" type="line"/>
    </contour>
  </outline>
  <lib>
    <dict>
      <key>com.schriftgestaltung.Glyphs.lastChange</key>
      <string>2023-06-30 11:37:30 +0000</string>
    </dict>
  </lib>
</glyph>
