<?xml version='1.0' encoding='UTF-8'?>
<glyph name="z" format="2">
  <advance width="470"/>
  <unicode hex="007A"/>
  <outline>
    <contour>
      <point x="70" y="0" type="line"/>
      <point x="400" y="0" type="line"/>
      <point x="400" y="48" type="line"/>
      <point x="200" y="48" type="line"/>
      <point x="200" y="168" type="line"/>
      <point x="242" y="168" type="line"/>
      <point x="242" y="253" type="line"/>
      <point x="400" y="253" type="line"/>
      <point x="400" y="570" type="line"/>
      <point x="70" y="570" type="line"/>
      <point x="70" y="522" type="line"/>
      <point x="270" y="522" type="line"/>
      <point x="270" y="268" type="line"/>
      <point x="227" y="268" type="line"/>
      <point x="227" y="183" type="line"/>
      <point x="70" y="183" type="line"/>
    </contour>
  </outline>
  <lib>
    <dict>
      <key>com.schriftgestaltung.Glyphs.lastChange</key>
      <string>2021-07-18 16:05:34 +0000</string>
    </dict>
  </lib>
</glyph>
