<?xml version='1.0' encoding='UTF-8'?>
<glyph name="a" format="2">
  <advance width="470"/>
  <unicode hex="0061"/>
  <outline>
    <contour>
      <point x="70" y="0" type="line"/>
      <point x="400" y="0" type="line"/>
      <point x="400" y="570" type="line"/>
      <point x="70" y="570" type="line"/>
      <point x="70" y="520" type="line"/>
      <point x="315" y="520" type="line"/>
      <point x="315" y="281" type="line"/>
      <point x="70" y="281" type="line"/>
    </contour>
    <contour>
      <point x="110" y="50" type="line"/>
      <point x="110" y="241" type="line"/>
      <point x="315" y="241" type="line"/>
      <point x="315" y="50" type="line"/>
    </contour>
  </outline>
  <lib>
    <dict>
      <key>com.schriftgestaltung.Glyphs.lastChange</key>
      <string>2021-07-18 16:05:34 +0000</string>
    </dict>
  </lib>
</glyph>
