<?xml version='1.0' encoding='UTF-8'?>
<glyph name="dagger" format="2">
  <advance width="565"/>
  <unicode hex="2020"/>
  <outline>
    <contour>
      <point x="240" y="-140" type="line"/>
      <point x="325" y="-140" type="line"/>
      <point x="325" y="520" type="line"/>
      <point x="495" y="520" type="line"/>
      <point x="495" y="570" type="line"/>
      <point x="325" y="570" type="line"/>
      <point x="325" y="784" type="line"/>
      <point x="240" y="784" type="line"/>
      <point x="240" y="570" type="line"/>
      <point x="70" y="570" type="line"/>
      <point x="70" y="520" type="line"/>
      <point x="240" y="520" type="line"/>
    </contour>
  </outline>
  <lib>
    <dict>
      <key>com.schriftgestaltung.Glyphs.lastChange</key>
      <string>2021-07-18 16:05:34 +0000</string>
    </dict>
  </lib>
</glyph>
