<?xml version='1.0' encoding='UTF-8'?>
<glyph name="f_f_i" format="2">
  <advance width="855"/>
  <outline>
    <contour>
      <point x="70" y="0" type="line"/>
      <point x="155" y="0" type="line"/>
      <point x="155" y="520" type="line"/>
      <point x="385" y="520" type="line"/>
      <point x="385" y="0" type="line"/>
      <point x="470" y="0" type="line"/>
      <point x="470" y="520" type="line"/>
      <point x="700" y="520" type="line"/>
      <point x="700" y="0" type="line"/>
      <point x="785" y="0" type="line"/>
      <point x="785" y="570" type="line"/>
      <point x="470" y="570" type="line"/>
      <point x="470" y="734" type="line"/>
      <point x="615" y="734" type="line"/>
      <point x="615" y="784" type="line"/>
      <point x="385" y="784" type="line"/>
      <point x="385" y="570" type="line"/>
      <point x="155" y="570" type="line"/>
      <point x="155" y="734" type="line"/>
      <point x="300" y="734" type="line"/>
      <point x="300" y="784" type="line"/>
      <point x="70" y="784" type="line"/>
    </contour>
    <contour>
      <point x="700" y="734" type="line"/>
      <point x="785" y="734" type="line"/>
      <point x="785" y="784" type="line"/>
      <point x="700" y="784" type="line"/>
    </contour>
  </outline>
  <lib>
    <dict>
      <key>com.schriftgestaltung.Glyphs.lastChange</key>
      <string>2021-07-18 16:05:34 +0000</string>
      <key>com.schriftgestaltung.Glyphs.leftMetricsKey</key>
      <string>f</string>
      <key>com.schriftgestaltung.Glyphs.rightMetricsKey</key>
      <string>i</string>
    </dict>
  </lib>
</glyph>
